[ 
{"_class" : "com.example.domain.Client", "id": 1, 
				"firstname": "Salman", "lastname": "las",
				 "phone": "15033",     "country":"Estonia","address": "Livii 2","security_No":"1"},
				 
{"_class" : "com.example.domain.Client", "id": 2,
				 "firstname": "Saba", "lastname": "Ahmadi",
				 "phone": "12333",    "country":"USA","address": " 450 Serra Mall, Stanford, CA 94305,",
				  "security_No":"12"},
				 
				 
{"_class" : "com.example.domain.Product", "id": 1,
				 "productName": "Nokia Lumia 640 ", "barcode": "123sdgg23sd",
				 "basePrice": "1200",    "description":"USA","releaseDate":"2016-01-12"},

{"_class" : "com.example.domain.Product", "id": 2,
				 "productName": "Lumia 640 Case ", "barcode": "kk8584asew3t",
				 "basePrice": "1700",    "description":"bla bla bla","releaseDate":"2016-02-08"},

{"_class" : "com.example.domain.PurchaseOrder", "id": 1,
				 "client":{"_class" : "com.example.domain.Client", "id": 2,
				 "firstname": "Saba", "lastname": "Ahmadi",
				 "phone": "12333",    "country":"USA","address": " 450 Serra Mall, Stanford, CA 94305,",
				  "security_No":"12"},
				 "product":{"_class" : "com.example.domain.Product", "id": 2,
				 "productName": "Lumia 640 Case ", "barcode": "kk8584asew3t",
				 "basePrice": "1700",    "description":"bla bla bla","releaseDate":"2016-02-08"}
				 ,"transactionDate":"2016-02-08","convertedPrice":121.1,"po_orderId":2},
				 
{"_class" : "com.example.domain.PurchaseOrder", "id": 2,
				 "client":{"_class" : "com.example.domain.Client", "id": 1, 
				"firstname": "Salman", "lastname": "las",
				 "phone": "15033",     "country":"Estonia","address": "Livii 2","security_No":"1"},
				 "product":{"_class" : "com.example.domain.Product", "id": 1,
				 "productName": "Nokia Lumia 640 ", "barcode": "123sdgg23sd",
				 "basePrice": "1200",    "description":"USA","releaseDate":"2016-01-12"}
				 ,"transactionDate":"2016-09-08","convertedPrice":501.17,"po_orderId":1}



]
